^C:\USERS\JAKUB\OPENGLPAG\CMAKELISTS.TXT
C:\USERS\JAKUB\OPENGLPAG\BUILD\CMAKEFILES\3.16.0-RC2\CMAKECCOMPILER.CMAKE
C:\USERS\JAKUB\OPENGLPAG\BUILD\CMAKEFILES\3.16.0-RC2\CMAKECXXCOMPILER.CMAKE
C:\USERS\JAKUB\OPENGLPAG\BUILD\CMAKEFILES\3.16.0-RC2\CMAKERCCOMPILER.CMAKE
C:\USERS\JAKUB\OPENGLPAG\BUILD\CMAKEFILES\3.16.0-RC2\CMAKESYSTEM.CMAKE
C:\USERS\JAKUB\OPENGLPAG\THIRDPARTY\THIRDPARTY.CMAKE
H:\CMAKE\SHARE\CMAKE-3.16\MODULES\CMAKECCOMPILER.CMAKE.IN
H:\CMAKE\SHARE\CMAKE-3.16\MODULES\CMAKECCOMPILERABI.C
H:\CMAKE\SHARE\CMAKE-3.16\MODULES\CMAKECINFORMATION.CMAKE
H:\CMAKE\SHARE\CMAKE-3.16\MODULES\CMAKECXXCOMPILER.CMAKE.IN
H:\CMAKE\SHARE\CMAKE-3.16\MODULES\CMAKECXXCOMPILERABI.CPP
H:\CMAKE\SHARE\CMAKE-3.16\MODULES\CMAKECXXINFORMATION.CMAKE
H:\CMAKE\SHARE\CMAKE-3.16\MODULES\CMAKECOMMONLANGUAGEINCLUDE.CMAKE
H:\CMAKE\SHARE\CMAKE-3.16\MODULES\CMAKECOMPILERIDDETECTION.CMAKE
H:\CMAKE\SHARE\CMAKE-3.16\MODULES\CMAKEDETERMINECCOMPILER.CMAKE
H:\CMAKE\SHARE\CMAKE-3.16\MODULES\CMAKEDETERMINECXXCOMPILER.CMAKE
H:\CMAKE\SHARE\CMAKE-3.16\MODULES\CMAKEDETERMINECOMPILEFEATURES.CMAKE
H:\CMAKE\SHARE\CMAKE-3.16\MODULES\CMAKEDETERMINECOMPILER.CMAKE
H:\CMAKE\SHARE\CMAKE-3.16\MODULES\CMAKEDETERMINECOMPILERABI.CMAKE
H:\CMAKE\SHARE\CMAKE-3.16\MODULES\CMAKEDETERMINECOMPILERID.CMAKE
H:\CMAKE\SHARE\CMAKE-3.16\MODULES\CMAKEDETERMINERCCOMPILER.CMAKE
H:\CMAKE\SHARE\CMAKE-3.16\MODULES\CMAKEDETERMINESYSTEM.CMAKE
H:\CMAKE\SHARE\CMAKE-3.16\MODULES\CMAKEFINDBINUTILS.CMAKE
H:\CMAKE\SHARE\CMAKE-3.16\MODULES\CMAKEGENERICSYSTEM.CMAKE
H:\CMAKE\SHARE\CMAKE-3.16\MODULES\CMAKEINITIALIZECONFIGS.CMAKE
H:\CMAKE\SHARE\CMAKE-3.16\MODULES\CMAKELANGUAGEINFORMATION.CMAKE
H:\CMAKE\SHARE\CMAKE-3.16\MODULES\CMAKEPARSEIMPLICITINCLUDEINFO.CMAKE
H:\CMAKE\SHARE\CMAKE-3.16\MODULES\CMAKEPARSEIMPLICITLINKINFO.CMAKE
H:\CMAKE\SHARE\CMAKE-3.16\MODULES\CMAKERCCOMPILER.CMAKE.IN
H:\CMAKE\SHARE\CMAKE-3.16\MODULES\CMAKERCINFORMATION.CMAKE
H:\CMAKE\SHARE\CMAKE-3.16\MODULES\CMAKESYSTEM.CMAKE.IN
H:\CMAKE\SHARE\CMAKE-3.16\MODULES\CMAKESYSTEMSPECIFICINFORMATION.CMAKE
H:\CMAKE\SHARE\CMAKE-3.16\MODULES\CMAKESYSTEMSPECIFICINITIALIZE.CMAKE
H:\CMAKE\SHARE\CMAKE-3.16\MODULES\CMAKETESTCCOMPILER.CMAKE
H:\CMAKE\SHARE\CMAKE-3.16\MODULES\CMAKETESTCXXCOMPILER.CMAKE
H:\CMAKE\SHARE\CMAKE-3.16\MODULES\CMAKETESTCOMPILERCOMMON.CMAKE
H:\CMAKE\SHARE\CMAKE-3.16\MODULES\CMAKETESTRCCOMPILER.CMAKE
H:\CMAKE\SHARE\CMAKE-3.16\MODULES\COMPILER\ADSP-DETERMINECOMPILER.CMAKE
H:\CMAKE\SHARE\CMAKE-3.16\MODULES\COMPILER\ARMCC-DETERMINECOMPILER.CMAKE
H:\CMAKE\SHARE\CMAKE-3.16\MODULES\COMPILER\ARMCLANG-DETERMINECOMPILER.CMAKE
H:\CMAKE\SHARE\CMAKE-3.16\MODULES\COMPILER\APPLECLANG-DETERMINECOMPILER.CMAKE
H:\CMAKE\SHARE\CMAKE-3.16\MODULES\COMPILER\BORLAND-DETERMINECOMPILER.CMAKE
H:\CMAKE\SHARE\CMAKE-3.16\MODULES\COMPILER\BRUCE-C-DETERMINECOMPILER.CMAKE
H:\CMAKE\SHARE\CMAKE-3.16\MODULES\COMPILER\CMAKECOMMONCOMPILERMACROS.CMAKE
H:\CMAKE\SHARE\CMAKE-3.16\MODULES\COMPILER\CLANG-DETERMINECOMPILER.CMAKE
H:\CMAKE\SHARE\CMAKE-3.16\MODULES\COMPILER\CLANG-DETERMINECOMPILERINTERNAL.CMAKE
H:\CMAKE\SHARE\CMAKE-3.16\MODULES\COMPILER\COMEAU-CXX-DETERMINECOMPILER.CMAKE
H:\CMAKE\SHARE\CMAKE-3.16\MODULES\COMPILER\COMPAQ-C-DETERMINECOMPILER.CMAKE
H:\CMAKE\SHARE\CMAKE-3.16\MODULES\COMPILER\COMPAQ-CXX-DETERMINECOMPILER.CMAKE
H:\CMAKE\SHARE\CMAKE-3.16\MODULES\COMPILER\CRAY-DETERMINECOMPILER.CMAKE
H:\CMAKE\SHARE\CMAKE-3.16\MODULES\COMPILER\EMBARCADERO-DETERMINECOMPILER.CMAKE
H:\CMAKE\SHARE\CMAKE-3.16\MODULES\COMPILER\FUJITSU-DETERMINECOMPILER.CMAKE
H:\CMAKE\SHARE\CMAKE-3.16\MODULES\COMPILER\GHS-DETERMINECOMPILER.CMAKE
H:\CMAKE\SHARE\CMAKE-3.16\MODULES\COMPILER\GNU-C-DETERMINECOMPILER.CMAKE
H:\CMAKE\SHARE\CMAKE-3.16\MODULES\COMPILER\GNU-CXX-DETERMINECOMPILER.CMAKE
H:\CMAKE\SHARE\CMAKE-3.16\MODULES\COMPILER\HP-C-DETERMINECOMPILER.CMAKE
H:\CMAKE\SHARE\CMAKE-3.16\MODULES\COMPILER\HP-CXX-DETERMINECOMPILER.CMAKE
H:\CMAKE\SHARE\CMAKE-3.16\MODULES\COMPILER\IAR-DETERMINECOMPILER.CMAKE
H:\CMAKE\SHARE\CMAKE-3.16\MODULES\COMPILER\IBMCPP-C-DETERMINEVERSIONINTERNAL.CMAKE
H:\CMAKE\SHARE\CMAKE-3.16\MODULES\COMPILER\IBMCPP-CXX-DETERMINEVERSIONINTERNAL.CMAKE
H:\CMAKE\SHARE\CMAKE-3.16\MODULES\COMPILER\INTEL-DETERMINECOMPILER.CMAKE
H:\CMAKE\SHARE\CMAKE-3.16\MODULES\COMPILER\MSVC-C.CMAKE
H:\CMAKE\SHARE\CMAKE-3.16\MODULES\COMPILER\MSVC-CXX.CMAKE
H:\CMAKE\SHARE\CMAKE-3.16\MODULES\COMPILER\MSVC-DETERMINECOMPILER.CMAKE
H:\CMAKE\SHARE\CMAKE-3.16\MODULES\COMPILER\NVIDIA-DETERMINECOMPILER.CMAKE
H:\CMAKE\SHARE\CMAKE-3.16\MODULES\COMPILER\OPENWATCOM-DETERMINECOMPILER.CMAKE
H:\CMAKE\SHARE\CMAKE-3.16\MODULES\COMPILER\PGI-DETERMINECOMPILER.CMAKE
H:\CMAKE\SHARE\CMAKE-3.16\MODULES\COMPILER\PATHSCALE-DETERMINECOMPILER.CMAKE
H:\CMAKE\SHARE\CMAKE-3.16\MODULES\COMPILER\SCO-DETERMINECOMPILER.CMAKE
H:\CMAKE\SHARE\CMAKE-3.16\MODULES\COMPILER\SDCC-C-DETERMINECOMPILER.CMAKE
H:\CMAKE\SHARE\CMAKE-3.16\MODULES\COMPILER\SUNPRO-C-DETERMINECOMPILER.CMAKE
H:\CMAKE\SHARE\CMAKE-3.16\MODULES\COMPILER\SUNPRO-CXX-DETERMINECOMPILER.CMAKE
H:\CMAKE\SHARE\CMAKE-3.16\MODULES\COMPILER\TI-DETERMINECOMPILER.CMAKE
H:\CMAKE\SHARE\CMAKE-3.16\MODULES\COMPILER\TINYCC-C-DETERMINECOMPILER.CMAKE
H:\CMAKE\SHARE\CMAKE-3.16\MODULES\COMPILER\VISUALAGE-C-DETERMINECOMPILER.CMAKE
H:\CMAKE\SHARE\CMAKE-3.16\MODULES\COMPILER\VISUALAGE-CXX-DETERMINECOMPILER.CMAKE
H:\CMAKE\SHARE\CMAKE-3.16\MODULES\COMPILER\WATCOM-DETERMINECOMPILER.CMAKE
H:\CMAKE\SHARE\CMAKE-3.16\MODULES\COMPILER\XL-C-DETERMINECOMPILER.CMAKE
H:\CMAKE\SHARE\CMAKE-3.16\MODULES\COMPILER\XL-CXX-DETERMINECOMPILER.CMAKE
H:\CMAKE\SHARE\CMAKE-3.16\MODULES\COMPILER\XLCLANG-C-DETERMINECOMPILER.CMAKE
H:\CMAKE\SHARE\CMAKE-3.16\MODULES\COMPILER\XLCLANG-CXX-DETERMINECOMPILER.CMAKE
H:\CMAKE\SHARE\CMAKE-3.16\MODULES\COMPILER\ZOS-C-DETERMINECOMPILER.CMAKE
H:\CMAKE\SHARE\CMAKE-3.16\MODULES\COMPILER\ZOS-CXX-DETERMINECOMPILER.CMAKE
H:\CMAKE\SHARE\CMAKE-3.16\MODULES\COMPILERID\VS-10.VCXPROJ.IN
H:\CMAKE\SHARE\CMAKE-3.16\MODULES\FINDOPENGL.CMAKE
H:\CMAKE\SHARE\CMAKE-3.16\MODULES\FINDPACKAGEHANDLESTANDARDARGS.CMAKE
H:\CMAKE\SHARE\CMAKE-3.16\MODULES\FINDPACKAGEMESSAGE.CMAKE
H:\CMAKE\SHARE\CMAKE-3.16\MODULES\INTERNAL\FEATURETESTING.CMAKE
H:\CMAKE\SHARE\CMAKE-3.16\MODULES\PLATFORM\WINDOWS-DETERMINE-CXX.CMAKE
H:\CMAKE\SHARE\CMAKE-3.16\MODULES\PLATFORM\WINDOWS-MSVC-C.CMAKE
H:\CMAKE\SHARE\CMAKE-3.16\MODULES\PLATFORM\WINDOWS-MSVC-CXX.CMAKE
H:\CMAKE\SHARE\CMAKE-3.16\MODULES\PLATFORM\WINDOWS-MSVC.CMAKE
H:\CMAKE\SHARE\CMAKE-3.16\MODULES\PLATFORM\WINDOWS.CMAKE
H:\CMAKE\SHARE\CMAKE-3.16\MODULES\PLATFORM\WINDOWSPATHS.CMAKE
