^H:\OPENGL\OPENGLPAG_ZADANIE1\BUILD\SRC\OPENGLPAG.DIR\DEBUG\IMGUI_IMPL_GLFW.OBJ|H:\OPENGL\OPENGLPAG_ZADANIE1\BUILD\SRC\OPENGLPAG.DIR\DEBUG\IMGUI_IMPL_OPENGL3.OBJ|H:\OPENGL\OPENGLPAG_ZADANIE1\BUILD\SRC\OPENGLPAG.DIR\DEBUG\MAIN.OBJ|H:\OPENGL\OPENGLPAG_ZADANIE1\BUILD\SRC\OPENGLPAG.DIR\DEBUG\OBRAZY.OBJ
C:\USERS\JAKUB\OPENGLPAG\BUILD\SRC\DEBUG\OPENGLPAG.EXE
C:\USERS\JAKUB\OPENGLPAG\BUILD\SRC\DEBUG\OPENGLPAG.ILK
C:\USERS\JAKUB\OPENGLPAG\BUILD\SRC\DEBUG\OPENGLPAG.PDB
