^H:\OPENGL\OPENGLPAG_ZADANIE1\BUILD\SRC\OPENGLPAG.DIR\DEBUG\IMGUI_IMPL_GLFW.OBJ|H:\OPENGL\OPENGLPAG_ZADANIE1\BUILD\SRC\OPENGLPAG.DIR\DEBUG\IMGUI_IMPL_OPENGL3.OBJ|H:\OPENGL\OPENGLPAG_ZADANIE1\BUILD\SRC\OPENGLPAG.DIR\DEBUG\MAIN.OBJ|H:\OPENGL\OPENGLPAG_ZADANIE1\BUILD\SRC\OPENGLPAG.DIR\DEBUG\OBRAZY.OBJ
C:\PROGRAM FILES (X86)\WINDOWS KITS\10\LIB\10.0.18362.0\UM\X64\OPENGL32.LIB
C:\PROGRAM FILES (X86)\WINDOWS KITS\10\LIB\10.0.18362.0\UM\X64\GLU32.LIB
H:\OPENGL\OPENGLPAG_ZADANIE1\BUILD\THIRDPARTY\ASSIMP\CODE\DEBUG\ASSIMP-VC140-MT.LIB
H:\OPENGL\OPENGLPAG_ZADANIE1\BUILD\THIRDPARTY\GLFW\SRC\DEBUG\GLFW3.LIB
H:\OPENGL\OPENGLPAG_ZADANIE1\BUILD\DEBUG\GLAD.LIB
H:\OPENGL\OPENGLPAG_ZADANIE1\BUILD\DEBUG\IMGUI.LIB
H:\OPENGL\OPENGLPAG_ZADANIE1\BUILD\DEBUG\STB_IMAGE.LIB
H:\OPENGL\OPENGLPAG_ZADANIE1\BUILD\THIRDPARTY\ASSIMP\CONTRIB\ZLIB\DEBUG\ZLIBSTATICD.LIB
H:\OPENGL\OPENGLPAG_ZADANIE1\BUILD\THIRDPARTY\ASSIMP\CONTRIB\IRRXML\DEBUG\IRRXML.LIB
C:\PROGRAM FILES (X86)\WINDOWS KITS\10\LIB\10.0.18362.0\UM\X64\KERNEL32.LIB
C:\PROGRAM FILES (X86)\WINDOWS KITS\10\LIB\10.0.18362.0\UM\X64\USER32.LIB
C:\PROGRAM FILES (X86)\WINDOWS KITS\10\LIB\10.0.18362.0\UM\X64\GDI32.LIB
C:\PROGRAM FILES (X86)\WINDOWS KITS\10\LIB\10.0.18362.0\UM\X64\WINSPOOL.LIB
C:\PROGRAM FILES (X86)\WINDOWS KITS\10\LIB\10.0.18362.0\UM\X64\SHELL32.LIB
C:\PROGRAM FILES (X86)\WINDOWS KITS\10\LIB\10.0.18362.0\UM\X64\OLE32.LIB
C:\PROGRAM FILES (X86)\WINDOWS KITS\10\LIB\10.0.18362.0\UM\X64\OLEAUT32.LIB
C:\PROGRAM FILES (X86)\WINDOWS KITS\10\LIB\10.0.18362.0\UM\X64\UUID.LIB
C:\PROGRAM FILES (X86)\WINDOWS KITS\10\LIB\10.0.18362.0\UM\X64\COMDLG32.LIB
C:\PROGRAM FILES (X86)\WINDOWS KITS\10\LIB\10.0.18362.0\UM\X64\ADVAPI32.LIB
H:\OPENGL\OPENGLPAG_ZADANIE1\BUILD\SRC\OPENGLPAG.DIR\DEBUG\OBRAZY.OBJ
H:\OPENGL\OPENGLPAG_ZADANIE1\BUILD\SRC\OPENGLPAG.DIR\DEBUG\IMGUI_IMPL_GLFW.OBJ
H:\OPENGL\OPENGLPAG_ZADANIE1\BUILD\SRC\OPENGLPAG.DIR\DEBUG\IMGUI_IMPL_OPENGL3.OBJ
H:\OPENGL\OPENGLPAG_ZADANIE1\BUILD\SRC\OPENGLPAG.DIR\DEBUG\MAIN.OBJ
C:\WINDOWS\SYSTEM32\TZRES.DLL
C:\WINDOWS\GLOBALIZATION\SORTING\SORTDEFAULT.NLS
H:\VISUAL_STUDIO\VC\TOOLS\MSVC\14.28.29910\LIB\X64\MSVCRTD.LIB
H:\VISUAL_STUDIO\VC\TOOLS\MSVC\14.28.29910\LIB\X64\OLDNAMES.LIB
H:\VISUAL_STUDIO\VC\TOOLS\MSVC\14.28.29910\LIB\X64\MSVCPRTD.LIB
C:\PROGRAM FILES (X86)\WINDOWS KITS\10\LIB\10.0.18362.0\UM\X64\IMM32.LIB
H:\VISUAL_STUDIO\VC\TOOLS\MSVC\14.28.29910\LIB\X64\VCRUNTIMED.LIB
C:\PROGRAM FILES (X86)\WINDOWS KITS\10\LIB\10.0.18362.0\UCRT\X64\UCRTD.LIB
H:\VISUAL_STUDIO\VC\TOOLS\MSVC\14.28.29910\BIN\HOSTX64\X64\LINK.EXE
C:\PROGRAM FILES (X86)\WINDOWS KITS\10\BIN\10.0.18362.0\X64\RC.EXE
H:\VISUAL_STUDIO\VC\TOOLS\MSVC\14.28.29910\BIN\HOSTX64\X64\CVTRES.EXE
H:\OPENGL\OPENGLPAG_ZADANIE1\BUILD\SRC\OPENGLPAG.DIR\DEBUG\VC142.PDB
C:\USERS\JAKUB\OPENGLPAG\BUILD\THIRDPARTY\GLFW\SRC\GLFW.DIR\DEBUG\GLFW.PDB
H:\OPENGL\OPENGLPAG_ZADANIE1\BUILD\DEBUG\GLAD.PDB
H:\OPENGL\OPENGLPAG_ZADANIE1\BUILD\DEBUG\IMGUI.PDB
