#Command: "H:\visual_studio\VC\Tools\MSVC\14.23.28105\bin\HostX64\x64\link.exe" /ERRORREPORT:PROMPT @C:\Users\Jakub\AppData\Local\Temp\tmpdae005aff472432e88c3d38c6ec09d28.rsp /nologo /incremental /fullbuild
^C:\USERS\JAKUB\OPENGLPAG\BUILD\SRC\OPENGLPAG.DIR\DEBUG\IMGUI_IMPL_GLFW.OBJ|C:\USERS\JAKUB\OPENGLPAG\BUILD\SRC\OPENGLPAG.DIR\DEBUG\IMGUI_IMPL_OPENGL3.OBJ|C:\USERS\JAKUB\OPENGLPAG\BUILD\SRC\OPENGLPAG.DIR\DEBUG\MAIN.OBJ
C:\USERS\JAKUB\OPENGLPAG\BUILD\SRC\DEBUG\OPENGLPAG.PDB
