#Command: "H:\visual_studio\VC\Tools\MSVC\14.23.28105\bin\HostX64\x64\link.exe" /ERRORREPORT:PROMPT @C:\Users\Jakub\AppData\Local\Temp\tmpff48ea5a596a4735a2bd4bd56aaaa62e.rsp /nologo /incremental /fullbuild
^C:\USERS\JAKUB\OPENGLPAG\BUILD\SRC\OPENGLPAG.DIR\DEBUG\IMGUI_IMPL_GLFW.OBJ|C:\USERS\JAKUB\OPENGLPAG\BUILD\SRC\OPENGLPAG.DIR\DEBUG\IMGUI_IMPL_OPENGL3.OBJ|C:\USERS\JAKUB\OPENGLPAG\BUILD\SRC\OPENGLPAG.DIR\DEBUG\MAIN.OBJ|C:\USERS\JAKUB\OPENGLPAG\BUILD\SRC\OPENGLPAG.DIR\DEBUG\OBRAZY.OBJ
C:\USERS\JAKUB\OPENGLPAG\BUILD\SRC\DEBUG\OPENGLPAG.PDB
